test/ece_745_projects/project_benches/proj_2/sim/transcript
# //  ModelSim SE-64 10.7c Aug 17 2018Linux 3.10.0-957.10.1.el7.x86_64
# //
# //  Copyright 1991-2018 Mentor Graphics Corporation
# //  All Rights Reserved.
# //
# //  ModelSim SE-64 and its associated documentation contain trade
# //  secrets and commercial or financial information that are the property of
# //  Mentor Graphics Corporation and are privileged, confidential,
# //  and exempt from disclosure under the Freedom of Information Act,
# //  5 U.S.C. Section 552. Furthermore, this information
# //  is prohibited from disclosure under the Trade Secrets Act,
# //  18 U.S.C. Section 1905.
# //
# vsim -i -classdebug -msgmode both -do "set NoQuitOnFinish 1; do wave.do ;" "+GEN_TRANS_TYPE=wb_transaction" optimized_debug_top_tb 
# Start time: 22:13:25 on Mar 24,2019
# Loading sv_std.std
# Loading work.i2c_if(fast)
# Loading work.ncsu_pkg(fast)
# Loading work.i2c_pkg(fast)
# Loading work.wb_if(fast)
# Loading work.wb_pkg(fast)
# Loading work.i2cmb_env_pkg(fast)
# Loading work.top(fast)
# Loading work.wb_if(fast)
# Loading work.i2c_if(fast)
# Loading std.standard
# Loading std.textio(body)
# Loading ieee.std_logic_1164(body)
# Loading work.iicmb_m_wb(str)#1
# Loading work.wishbone(rtl)#1
# Loading ieee.numeric_std(body)
# Loading work.iicmb_pkg(body)
# Loading work.regblock(rtl)#1
# Loading work.iicmb_int_pkg(body)
# Loading work.iicmb_m(str)#1
# Loading work.mbyte(rtl)#1
# Loading work.mbit(rtl)#1
# Loading work.conditioner_mux(str)#1
# Loading work.conditioner(str)#1
# Loading work.filter(rtl)#1
# Loading work.bus_state(rtl)#1
# set NoQuitOnFinish 1
# 1
#  do wave.do 
# 
run -all
# ----------------------------------------------------------------
# //  NCSU Package 
# //  Version 1.0a
# ----------------------------------------------------------------
# 
# 
# NCSU_INFO:Time                    0:ncsu_component::build():  of tst.env.WBagent.driver called
# NCSU_INFO:Time                    0:ncsu_component::build():  of tst.env.WBagent.monitor called
# in i2c agent build
# NCSU_INFO:Time                    0:ncsu_component::build():  of tst.env.I2Cagent.driver called
# NCSU_INFO:Time                    0:ncsu_component::build():  of tst.env.I2Cagent.monitor called
# NCSU_INFO:Time                    0:ncsu_component::build():  of tst.env.Predictor called
# NCSU_INFO:Time                    0:ncsu_component::build():  of tst.env.Scoreboard called
# i2cmb_env_pkg.i2cmb_generator.new found +GEN_TRANS_TYPE=wb_transaction
# tst.env.WBagent.monitor WISHBONE_MONITOR::run()WB ADDR: 0x0 | WB DATA:  0xc0 | WB ENABLE: 1
# tst.env.WBagent.monitor WISHBONE_MONITOR::run()WB ADDR: 0x1 | WB DATA:  0x01 | WB ENABLE: 1
# tst.env.WBagent.monitor WISHBONE_MONITOR::run()WB ADDR: 0x2 | WB DATA:  0x06 | WB ENABLE: 1
# 
# ***************** Write 32(0->31) values to the I2C bus ********************
# 
# START
# tst.env.WBagent.monitor WISHBONE_MONITOR::run()WB ADDR: 0x2 | WB DATA:  0x16 | WB ENABLE: 0
# tst.env.WBagent.monitor WISHBONE_MONITOR::run()WB ADDR: 0x2 | WB DATA:  0x04 | WB ENABLE: 1
# tst.env.WBagent.monitor WISHBONE_MONITOR::run()WB ADDR: 0x2 | WB DATA:  0x84 | WB ENABLE: 0
# tst.env.WBagent.monitor WISHBONE_MONITOR::run()WB ADDR: 0x1 | WB DATA:  0x44 | WB ENABLE: 1
# tst.env.WBagent.monitor WISHBONE_MONITOR::run()WB ADDR: 0x2 | WB DATA:  0x01 | WB ENABLE: 1
# tst.env.WBagent.monitor WISHBONE_MONITOR::run()WB ADDR: 0x2 | WB DATA:  0x81 | WB ENABLE: 0
# tst.env.WBagent.monitor WISHBONE_MONITOR::run()WB ADDR: 0x1 | WB DATA:  0x00 | WB ENABLE: 1
# tst.env.WBagent.monitor WISHBONE_MONITOR::run()WB ADDR: 0x2 | WB DATA:  0x01 | WB ENABLE: 1
# tst.env.WBagent.monitor WISHBONE_MONITOR::run()WB ADDR: 0x2 | WB DATA:  0x81 | WB ENABLE: 0
# tst.env.WBagent.monitor WISHBONE_MONITOR::run()WB ADDR: 0x1 | WB DATA:  0x01 | WB ENABLE: 1
# tst.env.WBagent.monitor WISHBONE_MONITOR::run()WB ADDR: 0x2 | WB DATA:  0x01 | WB ENABLE: 1
# tst.env.WBagent.monitor WISHBONE_MONITOR::run()WB ADDR: 0x2 | WB DATA:  0x81 | WB ENABLE: 0
# tst.env.WBagent.monitor WISHBONE_MONITOR::run()WB ADDR: 0x1 | WB DATA:  0x02 | WB ENABLE: 1
# tst.env.WBagent.monitor WISHBONE_MONITOR::run()WB ADDR: 0x2 | WB DATA:  0x01 | WB ENABLE: 1
# tst.env.WBagent.monitor WISHBONE_MONITOR::run()WB ADDR: 0x2 | WB DATA:  0x81 | WB ENABLE: 0
# tst.env.WBagent.monitor WISHBONE_MONITOR::run()WB ADDR: 0x1 | WB DATA:  0x03 | WB ENABLE: 1
# tst.env.WBagent.monitor WISHBONE_MONITOR::run()WB ADDR: 0x2 | WB DATA:  0x01 | WB ENABLE: 1
# tst.env.WBagent.monitor WISHBONE_MONITOR::run()WB ADDR: 0x2 | WB DATA:  0x81 | WB ENABLE: 0
# tst.env.WBagent.monitor WISHBONE_MONITOR::run()WB ADDR: 0x1 | WB DATA:  0x04 | WB ENABLE: 1
# tst.env.WBagent.monitor WISHBONE_MONITOR::run()WB ADDR: 0x2 | WB DATA:  0x01 | WB ENABLE: 1
# tst.env.WBagent.monitor WISHBONE_MONITOR::run()WB ADDR: 0x2 | WB DATA:  0x81 | WB ENABLE: 0
# tst.env.WBagent.monitor WISHBONE_MONITOR::run()WB ADDR: 0x1 | WB DATA:  0x05 | WB ENABLE: 1
# tst.env.WBagent.monitor WISHBONE_MONITOR::run()WB ADDR: 0x2 | WB DATA:  0x01 | WB ENABLE: 1
# tst.env.WBagent.monitor WISHBONE_MONITOR::run()WB ADDR: 0x2 | WB DATA:  0x81 | WB ENABLE: 0
# tst.env.WBagent.monitor WISHBONE_MONITOR::run()WB ADDR: 0x1 | WB DATA:  0x06 | WB ENABLE: 1
# tst.env.WBagent.monitor WISHBONE_MONITOR::run()WB ADDR: 0x2 | WB DATA:  0x01 | WB ENABLE: 1
# tst.env.WBagent.monitor WISHBONE_MONITOR::run()WB ADDR: 0x2 | WB DATA:  0x81 | WB ENABLE: 0
# tst.env.WBagent.monitor WISHBONE_MONITOR::run()WB ADDR: 0x1 | WB DATA:  0x07 | WB ENABLE: 1
# tst.env.WBagent.monitor WISHBONE_MONITOR::run()WB ADDR: 0x2 | WB DATA:  0x01 | WB ENABLE: 1
# tst.env.WBagent.monitor WISHBONE_MONITOR::run()WB ADDR: 0x2 | WB DATA:  0x81 | WB ENABLE: 0
# tst.env.WBagent.monitor WISHBONE_MONITOR::run()WB ADDR: 0x1 | WB DATA:  0x08 | WB ENABLE: 1
# tst.env.WBagent.monitor WISHBONE_MONITOR::run()WB ADDR: 0x2 | WB DATA:  0x01 | WB ENABLE: 1
# tst.env.WBagent.monitor WISHBONE_MONITOR::run()WB ADDR: 0x2 | WB DATA:  0x81 | WB ENABLE: 0
# tst.env.WBagent.monitor WISHBONE_MONITOR::run()WB ADDR: 0x1 | WB DATA:  0x09 | WB ENABLE: 1
# tst.env.WBagent.monitor WISHBONE_MONITOR::run()WB ADDR: 0x2 | WB DATA:  0x01 | WB ENABLE: 1
# tst.env.WBagent.monitor WISHBONE_MONITOR::run()WB ADDR: 0x2 | WB DATA:  0x81 | WB ENABLE: 0
# tst.env.WBagent.monitor WISHBONE_MONITOR::run()WB ADDR: 0x1 | WB DATA:  0x0a | WB ENABLE: 1
# tst.env.WBagent.monitor WISHBONE_MONITOR::run()WB ADDR: 0x2 | WB DATA:  0x01 | WB ENABLE: 1
# tst.env.WBagent.monitor WISHBONE_MONITOR::run()WB ADDR: 0x2 | WB DATA:  0x81 | WB ENABLE: 0
# tst.env.WBagent.monitor WISHBONE_MONITOR::run()WB ADDR: 0x1 | WB DATA:  0x0b | WB ENABLE: 1
# tst.env.WBagent.monitor WISHBONE_MONITOR::run()WB ADDR: 0x2 | WB DATA:  0x01 | WB ENABLE: 1
# tst.env.WBagent.monitor WISHBONE_MONITOR::run()WB ADDR: 0x2 | WB DATA:  0x81 | WB ENABLE: 0
# tst.env.WBagent.monitor WISHBONE_MONITOR::run()WB ADDR: 0x1 | WB DATA:  0x0c | WB ENABLE: 1
# tst.env.WBagent.monitor WISHBONE_MONITOR::run()WB ADDR: 0x2 | WB DATA:  0x01 | WB ENABLE: 1
# tst.env.WBagent.monitor WISHBONE_MONITOR::run()WB ADDR: 0x2 | WB DATA:  0x81 | WB ENABLE: 0
# tst.env.WBagent.monitor WISHBONE_MONITOR::run()WB ADDR: 0x1 | WB DATA:  0x0d | WB ENABLE: 1
# tst.env.WBagent.monitor WISHBONE_MONITOR::run()WB ADDR: 0x2 | WB DATA:  0x01 | WB ENABLE: 1
# tst.env.WBagent.monitor WISHBONE_MONITOR::run()WB ADDR: 0x2 | WB DATA:  0x81 | WB ENABLE: 0
# tst.env.WBagent.monitor WISHBONE_MONITOR::run()WB ADDR: 0x1 | WB DATA:  0x0e | WB ENABLE: 1
# tst.env.WBagent.monitor WISHBONE_MONITOR::run()WB ADDR: 0x2 | WB DATA:  0x01 | WB ENABLE: 1
# tst.env.WBagent.monitor WISHBONE_MONITOR::run()WB ADDR: 0x2 | WB DATA:  0x81 | WB ENABLE: 0
# tst.env.WBagent.monitor WISHBONE_MONITOR::run()WB ADDR: 0x1 | WB DATA:  0x0f | WB ENABLE: 1
# tst.env.WBagent.monitor WISHBONE_MONITOR::run()WB ADDR: 0x2 | WB DATA:  0x01 | WB ENABLE: 1
# tst.env.WBagent.monitor WISHBONE_MONITOR::run()WB ADDR: 0x2 | WB DATA:  0x81 | WB ENABLE: 0
# tst.env.WBagent.monitor WISHBONE_MONITOR::run()WB ADDR: 0x1 | WB DATA:  0x10 | WB ENABLE: 1
# tst.env.WBagent.monitor WISHBONE_MONITOR::run()WB ADDR: 0x2 | WB DATA:  0x01 | WB ENABLE: 1
# tst.env.WBagent.monitor WISHBONE_MONITOR::run()WB ADDR: 0x2 | WB DATA:  0x81 | WB ENABLE: 0
# tst.env.WBagent.monitor WISHBONE_MONITOR::run()WB ADDR: 0x1 | WB DATA:  0x11 | WB ENABLE: 1
# tst.env.WBagent.monitor WISHBONE_MONITOR::run()WB ADDR: 0x2 | WB DATA:  0x01 | WB ENABLE: 1
# tst.env.WBagent.monitor WISHBONE_MONITOR::run()WB ADDR: 0x2 | WB DATA:  0x81 | WB ENABLE: 0
# tst.env.WBagent.monitor WISHBONE_MONITOR::run()WB ADDR: 0x1 | WB DATA:  0x12 | WB ENABLE: 1
# tst.env.WBagent.monitor WISHBONE_MONITOR::run()WB ADDR: 0x2 | WB DATA:  0x01 | WB ENABLE: 1
# tst.env.WBagent.monitor WISHBONE_MONITOR::run()WB ADDR: 0x2 | WB DATA:  0x81 | WB ENABLE: 0
# tst.env.WBagent.monitor WISHBONE_MONITOR::run()WB ADDR: 0x1 | WB DATA:  0x13 | WB ENABLE: 1
# tst.env.WBagent.monitor WISHBONE_MONITOR::run()WB ADDR: 0x2 | WB DATA:  0x01 | WB ENABLE: 1
# tst.env.WBagent.monitor WISHBONE_MONITOR::run()WB ADDR: 0x2 | WB DATA:  0x81 | WB ENABLE: 0
# tst.env.WBagent.monitor WISHBONE_MONITOR::run()WB ADDR: 0x1 | WB DATA:  0x14 | WB ENABLE: 1
# tst.env.WBagent.monitor WISHBONE_MONITOR::run()WB ADDR: 0x2 | WB DATA:  0x01 | WB ENABLE: 1
# tst.env.WBagent.monitor WISHBONE_MONITOR::run()WB ADDR: 0x2 | WB DATA:  0x81 | WB ENABLE: 0
# tst.env.WBagent.monitor WISHBONE_MONITOR::run()WB ADDR: 0x1 | WB DATA:  0x15 | WB ENABLE: 1
# tst.env.WBagent.monitor WISHBONE_MONITOR::run()WB ADDR: 0x2 | WB DATA:  0x01 | WB ENABLE: 1
# tst.env.WBagent.monitor WISHBONE_MONITOR::run()WB ADDR: 0x2 | WB DATA:  0x81 | WB ENABLE: 0
# tst.env.WBagent.monitor WISHBONE_MONITOR::run()WB ADDR: 0x1 | WB DATA:  0x16 | WB ENABLE: 1
# tst.env.WBagent.monitor WISHBONE_MONITOR::run()WB ADDR: 0x2 | WB DATA:  0x01 | WB ENABLE: 1
# tst.env.WBagent.monitor WISHBONE_MONITOR::run()WB ADDR: 0x2 | WB DATA:  0x81 | WB ENABLE: 0
# tst.env.WBagent.monitor WISHBONE_MONITOR::run()WB ADDR: 0x1 | WB DATA:  0x17 | WB ENABLE: 1
# tst.env.WBagent.monitor WISHBONE_MONITOR::run()WB ADDR: 0x2 | WB DATA:  0x01 | WB ENABLE: 1
# tst.env.WBagent.monitor WISHBONE_MONITOR::run()WB ADDR: 0x2 | WB DATA:  0x81 | WB ENABLE: 0
# tst.env.WBagent.monitor WISHBONE_MONITOR::run()WB ADDR: 0x1 | WB DATA:  0x18 | WB ENABLE: 1
# tst.env.WBagent.monitor WISHBONE_MONITOR::run()WB ADDR: 0x2 | WB DATA:  0x01 | WB ENABLE: 1
# tst.env.WBagent.monitor WISHBONE_MONITOR::run()WB ADDR: 0x2 | WB DATA:  0x81 | WB ENABLE: 0
# tst.env.WBagent.monitor WISHBONE_MONITOR::run()WB ADDR: 0x1 | WB DATA:  0x19 | WB ENABLE: 1
# tst.env.WBagent.monitor WISHBONE_MONITOR::run()WB ADDR: 0x2 | WB DATA:  0x01 | WB ENABLE: 1
# tst.env.WBagent.monitor WISHBONE_MONITOR::run()WB ADDR: 0x2 | WB DATA:  0x81 | WB ENABLE: 0
# tst.env.WBagent.monitor WISHBONE_MONITOR::run()WB ADDR: 0x1 | WB DATA:  0x1a | WB ENABLE: 1
# tst.env.WBagent.monitor WISHBONE_MONITOR::run()WB ADDR: 0x2 | WB DATA:  0x01 | WB ENABLE: 1
# tst.env.WBagent.monitor WISHBONE_MONITOR::run()WB ADDR: 0x2 | WB DATA:  0x81 | WB ENABLE: 0
# tst.env.WBagent.monitor WISHBONE_MONITOR::run()WB ADDR: 0x1 | WB DATA:  0x1b | WB ENABLE: 1
# tst.env.WBagent.monitor WISHBONE_MONITOR::run()WB ADDR: 0x2 | WB DATA:  0x01 | WB ENABLE: 1
# tst.env.WBagent.monitor WISHBONE_MONITOR::run()WB ADDR: 0x2 | WB DATA:  0x81 | WB ENABLE: 0
# tst.env.WBagent.monitor WISHBONE_MONITOR::run()WB ADDR: 0x1 | WB DATA:  0x1c | WB ENABLE: 1
# tst.env.WBagent.monitor WISHBONE_MONITOR::run()WB ADDR: 0x2 | WB DATA:  0x01 | WB ENABLE: 1
# tst.env.WBagent.monitor WISHBONE_MONITOR::run()WB ADDR: 0x2 | WB DATA:  0x81 | WB ENABLE: 0
# tst.env.WBagent.monitor WISHBONE_MONITOR::run()WB ADDR: 0x1 | WB DATA:  0x1d | WB ENABLE: 1
# tst.env.WBagent.monitor WISHBONE_MONITOR::run()WB ADDR: 0x2 | WB DATA:  0x01 | WB ENABLE: 1
# tst.env.WBagent.monitor WISHBONE_MONITOR::run()WB ADDR: 0x2 | WB DATA:  0x81 | WB ENABLE: 0
# tst.env.WBagent.monitor WISHBONE_MONITOR::run()WB ADDR: 0x1 | WB DATA:  0x1e | WB ENABLE: 1
# tst.env.WBagent.monitor WISHBONE_MONITOR::run()WB ADDR: 0x2 | WB DATA:  0x01 | WB ENABLE: 1
# tst.env.WBagent.monitor WISHBONE_MONITOR::run()WB ADDR: 0x2 | WB DATA:  0x81 | WB ENABLE: 0
# tst.env.WBagent.monitor WISHBONE_MONITOR::run()WB ADDR: 0x1 | WB DATA:  0x1f | WB ENABLE: 1
# tst.env.WBagent.monitor WISHBONE_MONITOR::run()WB ADDR: 0x2 | WB DATA:  0x01 | WB ENABLE: 1
# tst.env.WBagent.monitor WISHBONE_MONITOR::run()WB ADDR: 0x2 | WB DATA:  0x81 | WB ENABLE: 0
# tst.env.WBagent.monitor WISHBONE_MONITOR::run()WB ADDR: 0x2 | WB DATA:  0x05 | WB ENABLE: 1
# tst.env.Scoreboardnb_transport:EXPECTED TRANSACTION I2C_DATA:'{0, 1, 2, 3, 4, 5, 6, 7, 8, 9, 10, 11, 12, 13, 14, 15, 16, 17, 18, 19, 20, 21, 22, 23, 24, 25, 26, 27, 28, 29, 30, 31}   I2C_ADDRESS:0x22   OP:  WRITE
# tst.env.I2Cagent.monitorI2C MONITOR::run() I2C DATA '{0, 1, 2, 3, 4, 5, 6, 7, 8, 9, 10, 11, 12, 13, 14, 15, 16, 17, 18, 19, 20, 21, 22, 23, 24, 25, 26, 27, 28, 29, 30, 31} | I2C ADDRESS:  0x22 | OPERATION: WRITE 
# tst.env.Scoreboard nb_put:       ACTUAL TRANSACTION I2C_DATA:'{0, 1, 2, 3, 4, 5, 6, 7, 8, 9, 10, 11, 12, 13, 14, 15, 16, 17, 18, 19, 20, 21, 22, 23, 24, 25, 26, 27, 28, 29, 30, 31}   I2C_ADDRESS:0x22   OP:  WRITE
#  !!!!!!!!!!!!!!!!!!!MATCH in SCOREBOARD!!!!!!!!!!!!!!!!!!!
# STOP
# 
# ***************** Read 32 values(100->131) from I2C bus **********************
# 
# tst.env.WBagent.monitor WISHBONE_MONITOR::run()WB ADDR: 0x2 | WB DATA:  0x85 | WB ENABLE: 0
# tst.env.WBagent.monitor WISHBONE_MONITOR::run()WB ADDR: 0x2 | WB DATA:  0x04 | WB ENABLE: 1
# START
# tst.env.WBagent.monitor WISHBONE_MONITOR::run()WB ADDR: 0x2 | WB DATA:  0x84 | WB ENABLE: 0
# tst.env.WBagent.monitor WISHBONE_MONITOR::run()WB ADDR: 0x1 | WB DATA:  0x45 | WB ENABLE: 1
# tst.env.WBagent.monitor WISHBONE_MONITOR::run()WB ADDR: 0x2 | WB DATA:  0x01 | WB ENABLE: 1
# tst.env.WBagent.monitor WISHBONE_MONITOR::run()WB ADDR: 0x2 | WB DATA:  0x81 | WB ENABLE: 0
# tst.env.WBagent.monitor WISHBONE_MONITOR::run()WB ADDR: 0x2 | WB DATA:  0x02 | WB ENABLE: 1
# tst.env.WBagent.monitor WISHBONE_MONITOR::run()WB ADDR: 0x2 | WB DATA:  0x82 | WB ENABLE: 0
# tst.env.WBagent.monitor WISHBONE_MONITOR::run()WB ADDR: 0x1 | WB DATA:  0x64 | WB ENABLE: 0
# tst.env.WBagent.monitor WISHBONE_MONITOR::run()WB ADDR: 0x2 | WB DATA:  0x02 | WB ENABLE: 1
# tst.env.WBagent.monitor WISHBONE_MONITOR::run()WB ADDR: 0x2 | WB DATA:  0x82 | WB ENABLE: 0
# tst.env.WBagent.monitor WISHBONE_MONITOR::run()WB ADDR: 0x1 | WB DATA:  0x65 | WB ENABLE: 0
# tst.env.WBagent.monitor WISHBONE_MONITOR::run()WB ADDR: 0x2 | WB DATA:  0x02 | WB ENABLE: 1
# tst.env.WBagent.monitor WISHBONE_MONITOR::run()WB ADDR: 0x2 | WB DATA:  0x82 | WB ENABLE: 0
# tst.env.WBagent.monitor WISHBONE_MONITOR::run()WB ADDR: 0x1 | WB DATA:  0x66 | WB ENABLE: 0
# tst.env.WBagent.monitor WISHBONE_MONITOR::run()WB ADDR: 0x2 | WB DATA:  0x02 | WB ENABLE: 1
# tst.env.WBagent.monitor WISHBONE_MONITOR::run()WB ADDR: 0x2 | WB DATA:  0x82 | WB ENABLE: 0
# tst.env.WBagent.monitor WISHBONE_MONITOR::run()WB ADDR: 0x1 | WB DATA:  0x67 | WB ENABLE: 0
# tst.env.WBagent.monitor WISHBONE_MONITOR::run()WB ADDR: 0x2 | WB DATA:  0x02 | WB ENABLE: 1
# tst.env.WBagent.monitor WISHBONE_MONITOR::run()WB ADDR: 0x2 | WB DATA:  0x82 | WB ENABLE: 0
# tst.env.WBagent.monitor WISHBONE_MONITOR::run()WB ADDR: 0x1 | WB DATA:  0x68 | WB ENABLE: 0
# tst.env.WBagent.monitor WISHBONE_MONITOR::run()WB ADDR: 0x2 | WB DATA:  0x02 | WB ENABLE: 1
# tst.env.WBagent.monitor WISHBONE_MONITOR::run()WB ADDR: 0x2 | WB DATA:  0x82 | WB ENABLE: 0
# tst.env.WBagent.monitor WISHBONE_MONITOR::run()WB ADDR: 0x1 | WB DATA:  0x69 | WB ENABLE: 0
# tst.env.WBagent.monitor WISHBONE_MONITOR::run()WB ADDR: 0x2 | WB DATA:  0x02 | WB ENABLE: 1
# tst.env.WBagent.monitor WISHBONE_MONITOR::run()WB ADDR: 0x2 | WB DATA:  0x82 | WB ENABLE: 0
# tst.env.WBagent.monitor WISHBONE_MONITOR::run()WB ADDR: 0x1 | WB DATA:  0x6a | WB ENABLE: 0
# tst.env.WBagent.monitor WISHBONE_MONITOR::run()WB ADDR: 0x2 | WB DATA:  0x02 | WB ENABLE: 1
# tst.env.WBagent.monitor WISHBONE_MONITOR::run()WB ADDR: 0x2 | WB DATA:  0x82 | WB ENABLE: 0
# tst.env.WBagent.monitor WISHBONE_MONITOR::run()WB ADDR: 0x1 | WB DATA:  0x6b | WB ENABLE: 0
# tst.env.WBagent.monitor WISHBONE_MONITOR::run()WB ADDR: 0x2 | WB DATA:  0x02 | WB ENABLE: 1
# tst.env.WBagent.monitor WISHBONE_MONITOR::run()WB ADDR: 0x2 | WB DATA:  0x82 | WB ENABLE: 0
# tst.env.WBagent.monitor WISHBONE_MONITOR::run()WB ADDR: 0x1 | WB DATA:  0x6c | WB ENABLE: 0
# tst.env.WBagent.monitor WISHBONE_MONITOR::run()WB ADDR: 0x2 | WB DATA:  0x02 | WB ENABLE: 1
# tst.env.WBagent.monitor WISHBONE_MONITOR::run()WB ADDR: 0x2 | WB DATA:  0x82 | WB ENABLE: 0
# tst.env.WBagent.monitor WISHBONE_MONITOR::run()WB ADDR: 0x1 | WB DATA:  0x6d | WB ENABLE: 0
# tst.env.WBagent.monitor WISHBONE_MONITOR::run()WB ADDR: 0x2 | WB DATA:  0x02 | WB ENABLE: 1
# tst.env.WBagent.monitor WISHBONE_MONITOR::run()WB ADDR: 0x2 | WB DATA:  0x82 | WB ENABLE: 0
# tst.env.WBagent.monitor WISHBONE_MONITOR::run()WB ADDR: 0x1 | WB DATA:  0x6e | WB ENABLE: 0
# tst.env.WBagent.monitor WISHBONE_MONITOR::run()WB ADDR: 0x2 | WB DATA:  0x02 | WB ENABLE: 1
# tst.env.WBagent.monitor WISHBONE_MONITOR::run()WB ADDR: 0x2 | WB DATA:  0x82 | WB ENABLE: 0
# tst.env.WBagent.monitor WISHBONE_MONITOR::run()WB ADDR: 0x1 | WB DATA:  0x6f | WB ENABLE: 0
# tst.env.WBagent.monitor WISHBONE_MONITOR::run()WB ADDR: 0x2 | WB DATA:  0x02 | WB ENABLE: 1
# tst.env.WBagent.monitor WISHBONE_MONITOR::run()WB ADDR: 0x2 | WB DATA:  0x82 | WB ENABLE: 0
# tst.env.WBagent.monitor WISHBONE_MONITOR::run()WB ADDR: 0x1 | WB DATA:  0x70 | WB ENABLE: 0
# tst.env.WBagent.monitor WISHBONE_MONITOR::run()WB ADDR: 0x2 | WB DATA:  0x02 | WB ENABLE: 1
# tst.env.WBagent.monitor WISHBONE_MONITOR::run()WB ADDR: 0x2 | WB DATA:  0x82 | WB ENABLE: 0
# tst.env.WBagent.monitor WISHBONE_MONITOR::run()WB ADDR: 0x1 | WB DATA:  0x71 | WB ENABLE: 0
# tst.env.WBagent.monitor WISHBONE_MONITOR::run()WB ADDR: 0x2 | WB DATA:  0x02 | WB ENABLE: 1
# tst.env.WBagent.monitor WISHBONE_MONITOR::run()WB ADDR: 0x2 | WB DATA:  0x82 | WB ENABLE: 0
# tst.env.WBagent.monitor WISHBONE_MONITOR::run()WB ADDR: 0x1 | WB DATA:  0x72 | WB ENABLE: 0
# tst.env.WBagent.monitor WISHBONE_MONITOR::run()WB ADDR: 0x2 | WB DATA:  0x02 | WB ENABLE: 1
# tst.env.WBagent.monitor WISHBONE_MONITOR::run()WB ADDR: 0x2 | WB DATA:  0x82 | WB ENABLE: 0
# tst.env.WBagent.monitor WISHBONE_MONITOR::run()WB ADDR: 0x1 | WB DATA:  0x73 | WB ENABLE: 0
# tst.env.WBagent.monitor WISHBONE_MONITOR::run()WB ADDR: 0x2 | WB DATA:  0x02 | WB ENABLE: 1
# tst.env.WBagent.monitor WISHBONE_MONITOR::run()WB ADDR: 0x2 | WB DATA:  0x82 | WB ENABLE: 0
# tst.env.WBagent.monitor WISHBONE_MONITOR::run()WB ADDR: 0x1 | WB DATA:  0x74 | WB ENABLE: 0
# tst.env.WBagent.monitor WISHBONE_MONITOR::run()WB ADDR: 0x2 | WB DATA:  0x02 | WB ENABLE: 1
# tst.env.WBagent.monitor WISHBONE_MONITOR::run()WB ADDR: 0x2 | WB DATA:  0x82 | WB ENABLE: 0
# tst.env.WBagent.monitor WISHBONE_MONITOR::run()WB ADDR: 0x1 | WB DATA:  0x75 | WB ENABLE: 0
# tst.env.WBagent.monitor WISHBONE_MONITOR::run()WB ADDR: 0x2 | WB DATA:  0x02 | WB ENABLE: 1
# tst.env.WBagent.monitor WISHBONE_MONITOR::run()WB ADDR: 0x2 | WB DATA:  0x82 | WB ENABLE: 0
# tst.env.WBagent.monitor WISHBONE_MONITOR::run()WB ADDR: 0x1 | WB DATA:  0x76 | WB ENABLE: 0
# tst.env.WBagent.monitor WISHBONE_MONITOR::run()WB ADDR: 0x2 | WB DATA:  0x02 | WB ENABLE: 1
# tst.env.WBagent.monitor WISHBONE_MONITOR::run()WB ADDR: 0x2 | WB DATA:  0x82 | WB ENABLE: 0
# tst.env.WBagent.monitor WISHBONE_MONITOR::run()WB ADDR: 0x1 | WB DATA:  0x77 | WB ENABLE: 0
# tst.env.WBagent.monitor WISHBONE_MONITOR::run()WB ADDR: 0x2 | WB DATA:  0x02 | WB ENABLE: 1
# tst.env.WBagent.monitor WISHBONE_MONITOR::run()WB ADDR: 0x2 | WB DATA:  0x82 | WB ENABLE: 0
# tst.env.WBagent.monitor WISHBONE_MONITOR::run()WB ADDR: 0x1 | WB DATA:  0x78 | WB ENABLE: 0
# tst.env.WBagent.monitor WISHBONE_MONITOR::run()WB ADDR: 0x2 | WB DATA:  0x02 | WB ENABLE: 1
# tst.env.WBagent.monitor WISHBONE_MONITOR::run()WB ADDR: 0x2 | WB DATA:  0x82 | WB ENABLE: 0
# tst.env.WBagent.monitor WISHBONE_MONITOR::run()WB ADDR: 0x1 | WB DATA:  0x79 | WB ENABLE: 0
# tst.env.WBagent.monitor WISHBONE_MONITOR::run()WB ADDR: 0x2 | WB DATA:  0x02 | WB ENABLE: 1
# tst.env.WBagent.monitor WISHBONE_MONITOR::run()WB ADDR: 0x2 | WB DATA:  0x82 | WB ENABLE: 0
# tst.env.WBagent.monitor WISHBONE_MONITOR::run()WB ADDR: 0x1 | WB DATA:  0x7a | WB ENABLE: 0
# tst.env.WBagent.monitor WISHBONE_MONITOR::run()WB ADDR: 0x2 | WB DATA:  0x02 | WB ENABLE: 1
# tst.env.WBagent.monitor WISHBONE_MONITOR::run()WB ADDR: 0x2 | WB DATA:  0x82 | WB ENABLE: 0
# tst.env.WBagent.monitor WISHBONE_MONITOR::run()WB ADDR: 0x1 | WB DATA:  0x7b | WB ENABLE: 0
# tst.env.WBagent.monitor WISHBONE_MONITOR::run()WB ADDR: 0x2 | WB DATA:  0x02 | WB ENABLE: 1
# tst.env.WBagent.monitor WISHBONE_MONITOR::run()WB ADDR: 0x2 | WB DATA:  0x82 | WB ENABLE: 0
# tst.env.WBagent.monitor WISHBONE_MONITOR::run()WB ADDR: 0x1 | WB DATA:  0x7c | WB ENABLE: 0
# tst.env.WBagent.monitor WISHBONE_MONITOR::run()WB ADDR: 0x2 | WB DATA:  0x02 | WB ENABLE: 1
# tst.env.WBagent.monitor WISHBONE_MONITOR::run()WB ADDR: 0x2 | WB DATA:  0x82 | WB ENABLE: 0
# tst.env.WBagent.monitor WISHBONE_MONITOR::run()WB ADDR: 0x1 | WB DATA:  0x7d | WB ENABLE: 0
# tst.env.WBagent.monitor WISHBONE_MONITOR::run()WB ADDR: 0x2 | WB DATA:  0x02 | WB ENABLE: 1
# tst.env.WBagent.monitor WISHBONE_MONITOR::run()WB ADDR: 0x2 | WB DATA:  0x82 | WB ENABLE: 0
# tst.env.WBagent.monitor WISHBONE_MONITOR::run()WB ADDR: 0x1 | WB DATA:  0x7e | WB ENABLE: 0
# tst.env.WBagent.monitor WISHBONE_MONITOR::run()WB ADDR: 0x2 | WB DATA:  0x02 | WB ENABLE: 1
# tst.env.WBagent.monitor WISHBONE_MONITOR::run()WB ADDR: 0x2 | WB DATA:  0x82 | WB ENABLE: 0
# tst.env.WBagent.monitor WISHBONE_MONITOR::run()WB ADDR: 0x1 | WB DATA:  0x7f | WB ENABLE: 0
# tst.env.WBagent.monitor WISHBONE_MONITOR::run()WB ADDR: 0x2 | WB DATA:  0x02 | WB ENABLE: 1
# tst.env.WBagent.monitor WISHBONE_MONITOR::run()WB ADDR: 0x2 | WB DATA:  0x82 | WB ENABLE: 0
# tst.env.WBagent.monitor WISHBONE_MONITOR::run()WB ADDR: 0x1 | WB DATA:  0x80 | WB ENABLE: 0
# tst.env.WBagent.monitor WISHBONE_MONITOR::run()WB ADDR: 0x2 | WB DATA:  0x02 | WB ENABLE: 1
# tst.env.WBagent.monitor WISHBONE_MONITOR::run()WB ADDR: 0x2 | WB DATA:  0x82 | WB ENABLE: 0
# tst.env.WBagent.monitor WISHBONE_MONITOR::run()WB ADDR: 0x1 | WB DATA:  0x81 | WB ENABLE: 0
