example/layered_testbench_with_testplan/transcript
# //  ModelSim SE-64 10.7c Aug 17 2018Linux 3.10.0-957.10.1.el7.x86_64
# //
# //  Copyright 1991-2018 Mentor Graphics Corporation
# //  All Rights Reserved.
# //
# //  ModelSim SE-64 and its associated documentation contain trade
# //  secrets and commercial or financial information that are the property of
# //  Mentor Graphics Corporation and are privileged, confidential,
# //  and exempt from disclosure under the Freedom of Information Act,
# //  5 U.S.C. Section 552. Furthermore, this information
# //  is prohibited from disclosure under the Trade Secrets Act,
# //  18 U.S.C. Section 1905.
# //
# vsim -sv_seed 12345 -do "do wave.do;run -a;do coverage_merge_and_report.do;" "+GEN_TRANS_TYPE=abc_transaction_base" optimized_debug_top_tb 
# Start time: 20:30:01 on Apr 09,2019
# Loading sv_std.std
# Loading work.abc_if(fast)
# Loading work.ncsu_pkg(fast)
# Loading work.abc_pkg(fast)
# Loading work.first_project_pkg(fast)
# Loading work.top(fast)
# Loading work.abc_if(fast)
# Loading work.abc_if(fast__1)
# Loading work.first_dut(fast)
# do wave.do
# run -a
# ----------------------------------------------------------------
# //  NCSU Package 
# //  Version 1.0a
# ----------------------------------------------------------------
# 
# 
# NCSU_INFO:Time                    0:ncsu_component::build():  of tst.env.p0_agent.driver called
# NCSU_INFO:Time                    0:ncsu_component::build():  of tst.env.p0_agent.monitor called
# NCSU_INFO:Time                    0:ncsu_component::build():  of tst.env.p1_agent.driver called
# NCSU_INFO:Time                    0:ncsu_component::build():  of tst.env.p1_agent.monitor called
# NCSU_INFO:Time                    0:ncsu_component::build():  of tst.env.pred called
# NCSU_INFO:Time                    0:ncsu_component::build():  of tst.env.scbd called
# NCSU_INFO:Time                    0:ncsu_component::build():  of tst.env.coverage called
# first_project_pkg.generator.new found +GEN_TRANS_TYPE=abc_transaction_base
# tst.env.p0_agent.driver name: abc_transaction_base transaction_count: 0 header:0x0000000000000000 payload:0x'{0, 0, 0, 0, 0, 0, 0, 0} trailer:0x0000000000000000 delay:33
# tst.gen name: abc_transaction_base transaction_count: 0 header:0x0000000000000000 payload:0x'{0, 0, 0, 0, 0, 0, 0, 0} trailer:0x0000000000000000 delay:33
# tst.env.p0_agent.driver name: abc_transaction_base transaction_count: 3 header:0x0000000000000000 payload:0x'{0, 0, 0, 0, 0, 0, 0, 0} trailer:0x0000000000000000 delay:31
# tst.env.p0_agent.monitor abc_monitor::run() header 0x0000000000000000 payload 0x'{0, 0, 0, 0, 0, 0, 0, 0} trailer 0x0000000000000000 delay 0x21
# tst.env.coverage name: monitored_trans transaction_count: 2 header:0x0000000000000000 payload:0x'{0, 0, 0, 0, 0, 0, 0, 0} trailer:0x0000000000000000 delay:33
# tst.env.pred name: monitored_trans transaction_count: 2 header:0x0000000000000000 payload:0x'{0, 0, 0, 0, 0, 0, 0, 0} trailer:0x0000000000000000 delay:33
# tst.env.scbd nb_transport: expected transaction name: monitored_trans transaction_count: 2 header:0x0000000000000000 payload:0x'{0, 0, 0, 0, 0, 0, 0, 0} trailer:0x0000000000000000 delay:33
# tst.env.p1_agent.monitor abc_monitor::run() header 0x0000000000000000 payload 0x'{0, 0, 0, 0, 0, 0, 0, 0} trailer 0x0000000000000000 delay 0x23
# tst.env.scbd nb_put: actual transaction name: monitored_trans transaction_count: 1 header:0x0000000000000000 payload:0x'{0, 0, 0, 0, 0, 0, 0, 0} trailer:0x0000000000000000 delay:35
# tst.env.scbd abc_transaction MATCH!
# tst.gen name: abc_transaction_base transaction_count: 3 header:0x0000000000000000 payload:0x'{0, 0, 0, 0, 0, 0, 0, 0} trailer:0x0000000000000000 delay:31
# tst.env.p0_agent.driver name: abc_transaction_base transaction_count: 6 header:0x0000000000000000 payload:0x'{0, 0, 0, 0, 0, 0, 0, 0} trailer:0x0000000000000000 delay:52
# tst.env.p0_agent.monitor abc_monitor::run() header 0x0000000000000000 payload 0x'{0, 0, 0, 0, 0, 0, 0, 0} trailer 0x0000000000000000 delay 0x1f
# tst.env.coverage name: monitored_trans transaction_count: 4 header:0x0000000000000000 payload:0x'{0, 0, 0, 0, 0, 0, 0, 0} trailer:0x0000000000000000 delay:31
# tst.env.pred name: monitored_trans transaction_count: 4 header:0x0000000000000000 payload:0x'{0, 0, 0, 0, 0, 0, 0, 0} trailer:0x0000000000000000 delay:31
# tst.env.scbd nb_transport: expected transaction name: monitored_trans transaction_count: 4 header:0x0000000000000000 payload:0x'{0, 0, 0, 0, 0, 0, 0, 0} trailer:0x0000000000000000 delay:31
# tst.env.p1_agent.monitor abc_monitor::run() header 0x0000000000000000 payload 0x'{0, 0, 0, 0, 0, 0, 0, 0} trailer 0x0000000000000000 delay 0x1f
# tst.env.scbd nb_put: actual transaction name: monitored_trans transaction_count: 5 header:0x0000000000000000 payload:0x'{0, 0, 0, 0, 0, 0, 0, 0} trailer:0x0000000000000000 delay:31
# tst.env.scbd abc_transaction MATCH!
# tst.env.p0_agent.monitor abc_monitor::run() header 0x0000000000000000 payload 0x'{0, 0, 0, 0, 0, 0, 0, 0} trailer 0x0000000000000000 delay 0x34
# tst.env.coverage name: monitored_trans transaction_count: 7 header:0x0000000000000000 payload:0x'{0, 0, 0, 0, 0, 0, 0, 0} trailer:0x0000000000000000 delay:52
# tst.env.pred name: monitored_trans transaction_count: 7 header:0x0000000000000000 payload:0x'{0, 0, 0, 0, 0, 0, 0, 0} trailer:0x0000000000000000 delay:52
# tst.env.scbd nb_transport: expected transaction name: monitored_trans transaction_count: 7 header:0x0000000000000000 payload:0x'{0, 0, 0, 0, 0, 0, 0, 0} trailer:0x0000000000000000 delay:52
# tst.gen name: abc_transaction_base transaction_count: 6 header:0x0000000000000000 payload:0x'{0, 0, 0, 0, 0, 0, 0, 0} trailer:0x0000000000000000 delay:52
# tst.env.p0_agent.driver name: abc_transaction_base transaction_count: 10 header:0x0000000000000000 payload:0x'{0, 0, 0, 0, 0, 0, 0, 0} trailer:0x0000000000000000 delay: 2
# tst.env.p1_agent.monitor abc_monitor::run() header 0x0000000000000000 payload 0x'{0, 0, 0, 0, 0, 0, 0, 0} trailer 0x0000000000000000 delay 0x34
# tst.env.scbd nb_put: actual transaction name: monitored_trans transaction_count: 8 header:0x0000000000000000 payload:0x'{0, 0, 0, 0, 0, 0, 0, 0} trailer:0x0000000000000000 delay:52
# tst.env.scbd abc_transaction MATCH!
# tst.gen name: abc_transaction_base transaction_count: 10 header:0x0000000000000000 payload:0x'{0, 0, 0, 0, 0, 0, 0, 0} trailer:0x0000000000000000 delay: 2
# tst.env.p0_agent.driver name: abc_transaction_base transaction_count: 12 header:0x0000000000000000 payload:0x'{0, 0, 0, 0, 0, 0, 0, 0} trailer:0x0000000000000000 delay: 1
# tst.env.p0_agent.monitor abc_monitor::run() header 0x0000000000000000 payload 0x'{0, 0, 0, 0, 0, 0, 0, 0} trailer 0x0000000000000000 delay 0x02
# tst.env.coverage name: monitored_trans transaction_count: 9 header:0x0000000000000000 payload:0x'{0, 0, 0, 0, 0, 0, 0, 0} trailer:0x0000000000000000 delay: 2
# tst.env.pred name: monitored_trans transaction_count: 9 header:0x0000000000000000 payload:0x'{0, 0, 0, 0, 0, 0, 0, 0} trailer:0x0000000000000000 delay: 2
# tst.env.scbd nb_transport: expected transaction name: monitored_trans transaction_count: 9 header:0x0000000000000000 payload:0x'{0, 0, 0, 0, 0, 0, 0, 0} trailer:0x0000000000000000 delay: 2
# tst.env.p1_agent.monitor abc_monitor::run() header 0x0000000000000000 payload 0x'{0, 0, 0, 0, 0, 0, 0, 0} trailer 0x0000000000000000 delay 0x02
# tst.env.scbd nb_put: actual transaction name: monitored_trans transaction_count: 11 header:0x0000000000000000 payload:0x'{0, 0, 0, 0, 0, 0, 0, 0} trailer:0x0000000000000000 delay: 2
# tst.env.scbd abc_transaction MATCH!
# tst.gen name: abc_transaction_base transaction_count: 12 header:0x0000000000000000 payload:0x'{0, 0, 0, 0, 0, 0, 0, 0} trailer:0x0000000000000000 delay: 1
# tst.env.p0_agent.driver name: abc_transaction_base transaction_count: 15 header:0x0000000000000000 payload:0x'{0, 0, 0, 0, 0, 0, 0, 0} trailer:0x0000000000000000 delay:33
# tst.env.p0_agent.monitor abc_monitor::run() header 0x0000000000000000 payload 0x'{0, 0, 0, 0, 0, 0, 0, 0} trailer 0x0000000000000000 delay 0x01
# tst.env.coverage name: monitored_trans transaction_count: 13 header:0x0000000000000000 payload:0x'{0, 0, 0, 0, 0, 0, 0, 0} trailer:0x0000000000000000 delay: 1
# tst.env.pred name: monitored_trans transaction_count: 13 header:0x0000000000000000 payload:0x'{0, 0, 0, 0, 0, 0, 0, 0} trailer:0x0000000000000000 delay: 1
# tst.env.scbd nb_transport: expected transaction name: monitored_trans transaction_count: 13 header:0x0000000000000000 payload:0x'{0, 0, 0, 0, 0, 0, 0, 0} trailer:0x0000000000000000 delay: 1
# tst.env.p1_agent.monitor abc_monitor::run() header 0x0000000000000000 payload 0x'{0, 0, 0, 0, 0, 0, 0, 0} trailer 0x0000000000000000 delay 0x01
# tst.env.scbd nb_put: actual transaction name: monitored_trans transaction_count: 14 header:0x0000000000000000 payload:0x'{0, 0, 0, 0, 0, 0, 0, 0} trailer:0x0000000000000000 delay: 1
# tst.env.scbd abc_transaction MATCH!
# tst.gen name: abc_transaction_base transaction_count: 15 header:0x0000000000000000 payload:0x'{0, 0, 0, 0, 0, 0, 0, 0} trailer:0x0000000000000000 delay:33
# tst.env.p0_agent.driver name: abc_transaction_base transaction_count: 18 header:0x0000000000000000 payload:0x'{0, 0, 0, 0, 0, 0, 0, 0} trailer:0x0000000000000000 delay: 7
# tst.env.p0_agent.monitor abc_monitor::run() header 0x0000000000000000 payload 0x'{0, 0, 0, 0, 0, 0, 0, 0} trailer 0x0000000000000000 delay 0x21
# tst.env.coverage name: monitored_trans transaction_count: 16 header:0x0000000000000000 payload:0x'{0, 0, 0, 0, 0, 0, 0, 0} trailer:0x0000000000000000 delay:33
# tst.env.pred name: monitored_trans transaction_count: 16 header:0x0000000000000000 payload:0x'{0, 0, 0, 0, 0, 0, 0, 0} trailer:0x0000000000000000 delay:33
# tst.env.scbd nb_transport: expected transaction name: monitored_trans transaction_count: 16 header:0x0000000000000000 payload:0x'{0, 0, 0, 0, 0, 0, 0, 0} trailer:0x0000000000000000 delay:33
# tst.env.p1_agent.monitor abc_monitor::run() header 0x0000000000000000 payload 0x'{0, 0, 0, 0, 0, 0, 0, 0} trailer 0x0000000000000000 delay 0x21
# tst.env.scbd nb_put: actual transaction name: monitored_trans transaction_count: 17 header:0x0000000000000000 payload:0x'{0, 0, 0, 0, 0, 0, 0, 0} trailer:0x0000000000000000 delay:33
# tst.env.scbd abc_transaction MATCH!
# tst.gen name: abc_transaction_base transaction_count: 18 header:0x0000000000000000 payload:0x'{0, 0, 0, 0, 0, 0, 0, 0} trailer:0x0000000000000000 delay: 7
# tst.env.p0_agent.driver name: abc_transaction_base transaction_count: 21 header:0x0000000000000000 payload:0x'{0, 0, 0, 0, 0, 0, 0, 0} trailer:0x0000000000000000 delay:14
# tst.env.p0_agent.monitor abc_monitor::run() header 0x0000000000000000 payload 0x'{0, 0, 0, 0, 0, 0, 0, 0} trailer 0x0000000000000000 delay 0x07
# tst.env.coverage name: monitored_trans transaction_count: 19 header:0x0000000000000000 payload:0x'{0, 0, 0, 0, 0, 0, 0, 0} trailer:0x0000000000000000 delay: 7
# tst.env.pred name: monitored_trans transaction_count: 19 header:0x0000000000000000 payload:0x'{0, 0, 0, 0, 0, 0, 0, 0} trailer:0x0000000000000000 delay: 7
# tst.env.scbd nb_transport: expected transaction name: monitored_trans transaction_count: 19 header:0x0000000000000000 payload:0x'{0, 0, 0, 0, 0, 0, 0, 0} trailer:0x0000000000000000 delay: 7
# tst.env.p1_agent.monitor abc_monitor::run() header 0x0000000000000000 payload 0x'{0, 0, 0, 0, 0, 0, 0, 0} trailer 0x0000000000000000 delay 0x07
# tst.env.scbd nb_put: actual transaction name: monitored_trans transaction_count: 20 header:0x0000000000000000 payload:0x'{0, 0, 0, 0, 0, 0, 0, 0} trailer:0x0000000000000000 delay: 7
# tst.env.scbd abc_transaction MATCH!
# tst.env.p0_agent.monitor abc_monitor::run() header 0x0000000000000000 payload 0x'{0, 0, 0, 0, 0, 0, 0, 0} trailer 0x0000000000000000 delay 0x0e
# tst.env.coverage name: monitored_trans transaction_count: 22 header:0x0000000000000000 payload:0x'{0, 0, 0, 0, 0, 0, 0, 0} trailer:0x0000000000000000 delay:14
# tst.env.pred name: monitored_trans transaction_count: 22 header:0x0000000000000000 payload:0x'{0, 0, 0, 0, 0, 0, 0, 0} trailer:0x0000000000000000 delay:14
# tst.env.scbd nb_transport: expected transaction name: monitored_trans transaction_count: 22 header:0x0000000000000000 payload:0x'{0, 0, 0, 0, 0, 0, 0, 0} trailer:0x0000000000000000 delay:14
# tst.gen name: abc_transaction_base transaction_count: 21 header:0x0000000000000000 payload:0x'{0, 0, 0, 0, 0, 0, 0, 0} trailer:0x0000000000000000 delay:14
# tst.env.p0_agent.driver name: abc_transaction_base transaction_count: 25 header:0x0000000000000000 payload:0x'{0, 0, 0, 0, 0, 0, 0, 0} trailer:0x0000000000000000 delay: 7
# tst.env.p1_agent.monitor abc_monitor::run() header 0x0000000000000000 payload 0x'{0, 0, 0, 0, 0, 0, 0, 0} trailer 0x0000000000000000 delay 0x0e
# tst.env.scbd nb_put: actual transaction name: monitored_trans transaction_count: 23 header:0x0000000000000000 payload:0x'{0, 0, 0, 0, 0, 0, 0, 0} trailer:0x0000000000000000 delay:14
# tst.env.scbd abc_transaction MATCH!
# tst.env.p0_agent.monitor abc_monitor::run() header 0x0000000000000000 payload 0x'{0, 0, 0, 0, 0, 0, 0, 0} trailer 0x0000000000000000 delay 0x07
# tst.env.coverage name: monitored_trans transaction_count: 24 header:0x0000000000000000 payload:0x'{0, 0, 0, 0, 0, 0, 0, 0} trailer:0x0000000000000000 delay: 7
# tst.env.pred name: monitored_trans transaction_count: 24 header:0x0000000000000000 payload:0x'{0, 0, 0, 0, 0, 0, 0, 0} trailer:0x0000000000000000 delay: 7
# tst.env.scbd nb_transport: expected transaction name: monitored_trans transaction_count: 24 header:0x0000000000000000 payload:0x'{0, 0, 0, 0, 0, 0, 0, 0} trailer:0x0000000000000000 delay: 7
# tst.gen name: abc_transaction_base transaction_count: 25 header:0x0000000000000000 payload:0x'{0, 0, 0, 0, 0, 0, 0, 0} trailer:0x0000000000000000 delay: 7
# tst.env.p0_agent.driver name: abc_transaction_base transaction_count: 28 header:0x0000000000000000 payload:0x'{0, 0, 0, 0, 0, 0, 0, 0} trailer:0x0000000000000000 delay: 3
# tst.env.p1_agent.monitor abc_monitor::run() header 0x0000000000000000 payload 0x'{0, 0, 0, 0, 0, 0, 0, 0} trailer 0x0000000000000000 delay 0x07
# tst.env.scbd nb_put: actual transaction name: monitored_trans transaction_count: 26 header:0x0000000000000000 payload:0x'{0, 0, 0, 0, 0, 0, 0, 0} trailer:0x0000000000000000 delay: 7
# tst.env.scbd abc_transaction MATCH!
# tst.env.p0_agent.monitor abc_monitor::run() header 0x0000000000000000 payload 0x'{0, 0, 0, 0, 0, 0, 0, 0} trailer 0x0000000000000000 delay 0x03
# tst.env.coverage name: monitored_trans transaction_count: 27 header:0x0000000000000000 payload:0x'{0, 0, 0, 0, 0, 0, 0, 0} trailer:0x0000000000000000 delay: 3
# tst.env.pred name: monitored_trans transaction_count: 27 header:0x0000000000000000 payload:0x'{0, 0, 0, 0, 0, 0, 0, 0} trailer:0x0000000000000000 delay: 3
# tst.env.scbd nb_transport: expected transaction name: monitored_trans transaction_count: 27 header:0x0000000000000000 payload:0x'{0, 0, 0, 0, 0, 0, 0, 0} trailer:0x0000000000000000 delay: 3
# tst.gen name: abc_transaction_base transaction_count: 28 header:0x0000000000000000 payload:0x'{0, 0, 0, 0, 0, 0, 0, 0} trailer:0x0000000000000000 delay: 3
# tst.env.p1_agent.monitor abc_monitor::run() header 0x0000000000000000 payload 0x'{0, 0, 0, 0, 0, 0, 0, 0} trailer 0x0000000000000000 delay 0x03
# tst.env.scbd nb_put: actual transaction name: monitored_trans transaction_count: 29 header:0x0000000000000000 payload:0x'{0, 0, 0, 0, 0, 0, 0, 0} trailer:0x0000000000000000 delay: 3
# tst.env.scbd abc_transaction MATCH!
# ** Note: $finish    : top.sv(31)
#    Time: 3075 ns  Iteration: 0  Instance: /top
# 1
# Break in NamedBeginStat test_flow at top.sv line 31
# do coverage_merge_and_report.do
# Format 'Excel' read from parameter file.
# 12 testplan section(s) added.
# Database './test_plan_layered_testbench.ucdb' written.
# Merging file ./test_name.12345.ucdb
# Merging file ./test_plan_layered_testbench.ucdb
# Merging file ./sim_and_testplan_merged.ucdb
# ** Error (suppressible): (vcover-6854) Multiple test data records with the same name encountered during the merge
# of file 'sim_and_testplan_merged.ucdb'.
# These test data records contain conflicting data.
# For more information issue the command 'verror 6854'.
# Test data records named 'test_name' are from different simulations.
# Writing merged result to sim_and_testplan_merged.ucdb
# 
# Applying tag commands ...
# All tags are applied successfully.
# coverage read -dataset sim_and_testplan_merged ./sim_and_testplan_merged.ucdb
# ./sim_and_testplan_merged.ucdb opened as coverage dataset "sim_and_testplan_merged"
# ** Error: Model Technology ModelSim SE-64 vcover 10.7c Coverage Utility 2018.08 Aug 17 2018
# Start time: 20:30:11 on Apr 09,2019
# vcover report -detailis -html -output covhtmlreport -assert -directive -cvg -code bcefst -threshL 50 -threshH 90 ./sim_and_testplan_merged.ucdb 
# End time: 20:30:11 on Apr 09,2019, Elapsed time: 0:00:00
# Errors: 1, Warnings: 0
# ** Error: (vcover-4003) Invalid option '-detailis'.
#        vcover report -html [-htmldir <outdir>] [-verbose] [-code [bcesf(t|x)]] [-assert]
#                            [-cvg] [-instance <pathname>] [-du <du name>] 
#                            [-directive] [-noinstance] [-source] [-details[=abcdefgst]]
#                            [-nodu] [-noframes] [-notestplan] [-nofec] [-noudp]
#                            [-notimestamps] [-nozeroweights] [-noignorebins] [-binrhs]
#                            [-hidecvginsts] [-hidecvginstspi0] [-usecnpm] [-testhitdata[=<int>]] [-testhitdataAll]
#                            [-precision <int>] [-threshH <pct>] [-threshL <pct>] [-summary]
#                            [-stmtaltflow] [-showexcluded] [-showcvggaolpcnt] [-dynamic]
#                            [-servermode] [-stopserver] [-port <number>] [-testdetails] <ucdb_or_coverstore_test>
# Error in macro ./coverage_merge_and_report.do line 7
# Model Technology ModelSim SE-64 vcover 10.7c Coverage Utility 2018.08 Aug 17 2018
# Start time: 20:30:11 on Apr 09,2019
# vcover report -detailis -html -output covhtmlreport -assert -directive -cvg -code bcefst -threshL 50 -threshH 90 ./sim_and_testplan_merged.ucdb 
# End time: 20:30:11 on Apr 09,2019, Elapsed time: 0:00:00
# Errors: 1, Warnings: 0
# ** Error: (vcover-4003) Invalid option '-detailis'.
#        vcover report -html [-htmldir <outdir>] [-verbose] [-code [bcesf(t|x)]] [-assert]
#                            [-cvg] [-instance <pathname>] [-du <du name>] 
#                            [-directive] [-noinstance] [-source] [-details[=abcdefgst]]
#                            [-nodu] [-noframes] [-notestplan] [-nofec] [-noudp]
#                            [-notimestamps] [-nozeroweights] [-noignorebins] [-binrhs]
#                            [-hidecvginsts] [-hidecvginstspi0] [-usecnpm] [-testhitdata[=<int>]] [-testhitdataAll]
#                            [-precision <int>] [-threshH <pct>] [-threshL <pct>] [-summary]
#                            [-stmtaltflow] [-showexcluded] [-showcvggaolpcnt] [-dynamic]
#                            [-servermode] [-stopserver] [-port <number>] [-testdetails] <ucdb_or_coverstore_test>
# 
#     while executing
# "error [FixExecError $msg]"
#     (procedure "vcover" line 24)
#     invoked from within
# "vcover report -detailis -html -output covhtmlreport -assert -directive -cvg -code bcefst -threshL 50 -threshH 90 ./sim_and_testplan_merged.ucdb"
# 
