project_benches/project_1/sim/transcript
# //  ModelSim SE-64 10.7c Aug 17 2018Linux 3.10.0-957.5.1.el7.x86_64
# //
# //  Copyright 1991-2018 Mentor Graphics Corporation
# //  All Rights Reserved.
# //
# //  ModelSim SE-64 and its associated documentation contain trade
# //  secrets and commercial or financial information that are the property of
# //  Mentor Graphics Corporation and are privileged, confidential,
# //  and exempt from disclosure under the Freedom of Information Act,
# //  5 U.S.C. Section 552. Furthermore, this information
# //  is prohibited from disclosure under the Trade Secrets Act,
# //  18 U.S.C. Section 1905.
# //
# vsim -i -classdebug -msgmode both -do "set NoQuitOnFinish 1; do wave.do" optimized_debug_top_tb 
# Start time: 21:13:46 on Feb 23,2019
# Loading sv_std.std
# Loading work.top(fast)
# Loading work.wb_if(fast)
# Loading work.i2c_if(fast)
# Loading std.standard
# Loading std.textio(body)
# Loading ieee.std_logic_1164(body)
# Loading work.iicmb_m_wb(str)#1
# Loading work.wishbone(rtl)#1
# Loading ieee.numeric_std(body)
# Loading work.iicmb_pkg(body)
# Loading work.regblock(rtl)#1
# Loading work.iicmb_int_pkg(body)
# Loading work.iicmb_m(str)#1
# Loading work.mbyte(rtl)#1
# Loading work.mbit(rtl)#1
# Loading work.conditioner_mux(str)#1
# Loading work.conditioner(str)#1
# Loading work.filter(rtl)#1
# Loading work.bus_state(rtl)#1
# set NoQuitOnFinish 1
# 1
#  do wave.do
run -all
# Read DATA ::::100
# Read DATA ::::101
# Read DATA ::::102
# Read DATA ::::103
# Read DATA ::::104
# Read DATA ::::105
# Read DATA ::::106
# Read DATA ::::107
# Read DATA ::::108
# Read DATA ::::109
# Read DATA ::::110
# Read DATA ::::111
# Read DATA ::::112
# Read DATA ::::113
# Read DATA ::::114
# Read DATA ::::115
# Read DATA ::::116
# Read DATA ::::117
# Read DATA ::::118
# Read DATA ::::119
# Read DATA ::::120
# Read DATA ::::121
# Read DATA ::::122
# Read DATA ::::123
# Read DATA ::::124
# Read DATA ::::125
# Read DATA ::::126
# Read DATA ::::127
# Read DATA ::::128
# Read DATA ::::129
# Read DATA ::::130
# Read DATA ::::131
# Addr:0x0 | Data:0xc0 | W_En:1
# Addr:0x1 | Data:0x01 | W_En:1
# Addr:0x2 | Data:0x06 | W_En:1
# Addr:0x2 | Data:0x16 | W_En:0
# Addr:0x2 | Data:0x04 | W_En:1
# START!!!!!
# Addr:0x2 | Data:0x84 | W_En:0
# Addr:0x1 | Data:0x44 | W_En:1
# Addr:0x2 | Data:0x01 | W_En:1
# SLAVE ADDRESS: 0x22 | OPERATION: WRITE
# Addr:0x2 | Data:0x81 | W_En:0
# Addr:0x1 | Data:0x00 | W_En:1
# Addr:0x2 | Data:0x01 | W_En:1
# SLAVE ADDRESS: 0x22 | OPERATION: WRITE | Data:  0
# Addr:0x2 | Data:0x81 | W_En:0
# Addr:0x2 | Data:0x04 | W_En:1
# RESTART!!!!!
# Addr:0x2 | Data:0x84 | W_En:0
# Addr:0x1 | Data:0x45 | W_En:1
# Addr:0x2 | Data:0x01 | W_En:1
# SLAVE ADDRESS: 0x22 | OPERATION:  READ
# Addr:0x2 | Data:0x81 | W_En:0
# Addr:0x2 | Data:0x03 | W_En:1
# STOP!!!!!
# SLAVE ADDRESS: 0x22 | OPERATION:  READ | Data:100
# READ WTIH NACK 
# Addr:0x2 | Data:0x83 | W_En:0
# Addr:0x1 | Data:0x26 | W_En:0
# Addr:0x2 | Data:0x04 | W_En:1
# START!!!!!
# Addr:0x2 | Data:0x84 | W_En:0
# Addr:0x1 | Data:0x44 | W_En:1
# Addr:0x2 | Data:0x01 | W_En:1
# SLAVE ADDRESS: 0x22 | OPERATION: WRITE
# Addr:0x2 | Data:0x81 | W_En:0
# Addr:0x1 | Data:0x01 | W_En:1
# Addr:0x2 | Data:0x01 | W_En:1
# SLAVE ADDRESS: 0x22 | OPERATION: WRITE | Data:  1
# Addr:0x2 | Data:0x81 | W_En:0
# Addr:0x2 | Data:0x04 | W_En:1
# RESTART!!!!!
# Addr:0x2 | Data:0x84 | W_En:0
# Addr:0x1 | Data:0x45 | W_En:1
# Addr:0x2 | Data:0x01 | W_En:1
# SLAVE ADDRESS: 0x22 | OPERATION:  READ
# Addr:0x2 | Data:0x81 | W_En:0
# Addr:0x2 | Data:0x03 | W_En:1
# STOP!!!!!
# SLAVE ADDRESS: 0x22 | OPERATION:  READ | Data:101
# READ WTIH NACK 
# Addr:0x2 | Data:0x83 | W_En:0
# Addr:0x1 | Data:0xa6 | W_En:0
# Addr:0x2 | Data:0x04 | W_En:1
# START!!!!!
# Addr:0x2 | Data:0x84 | W_En:0
# Addr:0x1 | Data:0x44 | W_En:1
# Addr:0x2 | Data:0x01 | W_En:1
# SLAVE ADDRESS: 0x22 | OPERATION: WRITE
# Addr:0x2 | Data:0x81 | W_En:0
# Addr:0x1 | Data:0x02 | W_En:1
# Addr:0x2 | Data:0x01 | W_En:1
# SLAVE ADDRESS: 0x22 | OPERATION: WRITE | Data:  2
# Addr:0x2 | Data:0x81 | W_En:0
# Addr:0x2 | Data:0x04 | W_En:1
# RESTART!!!!!
# Addr:0x2 | Data:0x84 | W_En:0
# Addr:0x1 | Data:0x45 | W_En:1
# Addr:0x2 | Data:0x01 | W_En:1
# SLAVE ADDRESS: 0x22 | OPERATION:  READ
# Addr:0x2 | Data:0x81 | W_En:0
# Addr:0x2 | Data:0x03 | W_En:1
# STOP!!!!!
# SLAVE ADDRESS: 0x22 | OPERATION:  READ | Data:102
# READ WTIH NACK 
# Addr:0x2 | Data:0x83 | W_En:0
# Addr:0x1 | Data:0x66 | W_En:0
# Addr:0x2 | Data:0x04 | W_En:1
# START!!!!!
# Addr:0x2 | Data:0x84 | W_En:0
# Addr:0x1 | Data:0x44 | W_En:1
# Addr:0x2 | Data:0x01 | W_En:1
# SLAVE ADDRESS: 0x22 | OPERATION: WRITE
# Addr:0x2 | Data:0x81 | W_En:0
# Addr:0x1 | Data:0x03 | W_En:1
# Addr:0x2 | Data:0x01 | W_En:1
# SLAVE ADDRESS: 0x22 | OPERATION: WRITE | Data:  3
# Addr:0x2 | Data:0x81 | W_En:0
# Addr:0x2 | Data:0x04 | W_En:1
# RESTART!!!!!
# Addr:0x2 | Data:0x84 | W_En:0
# Addr:0x1 | Data:0x45 | W_En:1
# Addr:0x2 | Data:0x01 | W_En:1
# SLAVE ADDRESS: 0x22 | OPERATION:  READ
# Addr:0x2 | Data:0x81 | W_En:0
# Addr:0x2 | Data:0x03 | W_En:1
# STOP!!!!!
# SLAVE ADDRESS: 0x22 | OPERATION:  READ | Data:103
# READ WTIH NACK 
# Addr:0x2 | Data:0x83 | W_En:0
# Addr:0x1 | Data:0xe6 | W_En:0
# Addr:0x2 | Data:0x04 | W_En:1
# START!!!!!
# Addr:0x2 | Data:0x84 | W_En:0
# Addr:0x1 | Data:0x44 | W_En:1
# Addr:0x2 | Data:0x01 | W_En:1
# SLAVE ADDRESS: 0x22 | OPERATION: WRITE
# Addr:0x2 | Data:0x81 | W_En:0
# Addr:0x1 | Data:0x04 | W_En:1
# Addr:0x2 | Data:0x01 | W_En:1
# SLAVE ADDRESS: 0x22 | OPERATION: WRITE | Data:  4
# Addr:0x2 | Data:0x81 | W_En:0
# Addr:0x2 | Data:0x04 | W_En:1
# RESTART!!!!!
# Addr:0x2 | Data:0x84 | W_En:0
# Addr:0x1 | Data:0x45 | W_En:1
# Addr:0x2 | Data:0x01 | W_En:1
# SLAVE ADDRESS: 0x22 | OPERATION:  READ
# Addr:0x2 | Data:0x81 | W_En:0
# Addr:0x2 | Data:0x03 | W_En:1
# STOP!!!!!
# SLAVE ADDRESS: 0x22 | OPERATION:  READ | Data:104
# READ WTIH NACK 
# Addr:0x2 | Data:0x83 | W_En:0
# Addr:0x1 | Data:0x16 | W_En:0
# Addr:0x2 | Data:0x04 | W_En:1
# START!!!!!
# Addr:0x2 | Data:0x84 | W_En:0
# Addr:0x1 | Data:0x44 | W_En:1
# Addr:0x2 | Data:0x01 | W_En:1
# SLAVE ADDRESS: 0x22 | OPERATION: WRITE
# Addr:0x2 | Data:0x81 | W_En:0
# Addr:0x1 | Data:0x05 | W_En:1
# Addr:0x2 | Data:0x01 | W_En:1
# SLAVE ADDRESS: 0x22 | OPERATION: WRITE | Data:  5
# Addr:0x2 | Data:0x81 | W_En:0
# Addr:0x2 | Data:0x04 | W_En:1
# RESTART!!!!!
# Addr:0x2 | Data:0x84 | W_En:0
# Addr:0x1 | Data:0x45 | W_En:1
# Addr:0x2 | Data:0x01 | W_En:1
# SLAVE ADDRESS: 0x22 | OPERATION:  READ
# Addr:0x2 | Data:0x81 | W_En:0
# Addr:0x2 | Data:0x03 | W_En:1
# STOP!!!!!
# SLAVE ADDRESS: 0x22 | OPERATION:  READ | Data:105
# READ WTIH NACK 
# Addr:0x2 | Data:0x83 | W_En:0
# Addr:0x1 | Data:0x96 | W_En:0
# Addr:0x2 | Data:0x04 | W_En:1
# START!!!!!
# Addr:0x2 | Data:0x84 | W_En:0
# Addr:0x1 | Data:0x44 | W_En:1
# Addr:0x2 | Data:0x01 | W_En:1
# SLAVE ADDRESS: 0x22 | OPERATION: WRITE
# Addr:0x2 | Data:0x81 | W_En:0
# Addr:0x1 | Data:0x06 | W_En:1
# Addr:0x2 | Data:0x01 | W_En:1
# SLAVE ADDRESS: 0x22 | OPERATION: WRITE | Data:  6
# Addr:0x2 | Data:0x81 | W_En:0
# Addr:0x2 | Data:0x04 | W_En:1
# RESTART!!!!!
# Addr:0x2 | Data:0x84 | W_En:0
# Addr:0x1 | Data:0x45 | W_En:1
# Addr:0x2 | Data:0x01 | W_En:1
# SLAVE ADDRESS: 0x22 | OPERATION:  READ
# Addr:0x2 | Data:0x81 | W_En:0
# Addr:0x2 | Data:0x03 | W_En:1
# STOP!!!!!
# SLAVE ADDRESS: 0x22 | OPERATION:  READ | Data:106
# READ WTIH NACK 
# Addr:0x2 | Data:0x83 | W_En:0
# Addr:0x1 | Data:0x56 | W_En:0
# Addr:0x2 | Data:0x04 | W_En:1
# START!!!!!
# Addr:0x2 | Data:0x84 | W_En:0
# Addr:0x1 | Data:0x44 | W_En:1
# Addr:0x2 | Data:0x01 | W_En:1
# SLAVE ADDRESS: 0x22 | OPERATION: WRITE
# Addr:0x2 | Data:0x81 | W_En:0
# Addr:0x1 | Data:0x07 | W_En:1
# Addr:0x2 | Data:0x01 | W_En:1
# SLAVE ADDRESS: 0x22 | OPERATION: WRITE | Data:  7
# Addr:0x2 | Data:0x81 | W_En:0
# Addr:0x2 | Data:0x04 | W_En:1
# RESTART!!!!!
# Addr:0x2 | Data:0x84 | W_En:0
# Addr:0x1 | Data:0x45 | W_En:1
# Addr:0x2 | Data:0x01 | W_En:1
# SLAVE ADDRESS: 0x22 | OPERATION:  READ
# Addr:0x2 | Data:0x81 | W_En:0
# Addr:0x2 | Data:0x03 | W_En:1
# STOP!!!!!
# SLAVE ADDRESS: 0x22 | OPERATION:  READ | Data:107
# READ WTIH NACK 
# Addr:0x2 | Data:0x83 | W_En:0
# Addr:0x1 | Data:0xd6 | W_En:0
# Addr:0x2 | Data:0x04 | W_En:1
# START!!!!!
# Addr:0x2 | Data:0x84 | W_En:0
# Addr:0x1 | Data:0x44 | W_En:1
# Addr:0x2 | Data:0x01 | W_En:1
# SLAVE ADDRESS: 0x22 | OPERATION: WRITE
# Addr:0x2 | Data:0x81 | W_En:0
# Addr:0x1 | Data:0x08 | W_En:1
# Addr:0x2 | Data:0x01 | W_En:1
# SLAVE ADDRESS: 0x22 | OPERATION: WRITE | Data:  8
# Addr:0x2 | Data:0x81 | W_En:0
# Addr:0x2 | Data:0x04 | W_En:1
# RESTART!!!!!
# Addr:0x2 | Data:0x84 | W_En:0
# Addr:0x1 | Data:0x45 | W_En:1
# Addr:0x2 | Data:0x01 | W_En:1
# SLAVE ADDRESS: 0x22 | OPERATION:  READ
# Addr:0x2 | Data:0x81 | W_En:0
# Addr:0x2 | Data:0x03 | W_En:1
# STOP!!!!!
# SLAVE ADDRESS: 0x22 | OPERATION:  READ | Data:108
# READ WTIH NACK 
# Addr:0x2 | Data:0x83 | W_En:0
# Addr:0x1 | Data:0x36 | W_En:0
# Addr:0x2 | Data:0x04 | W_En:1
# START!!!!!
# Addr:0x2 | Data:0x84 | W_En:0
# Addr:0x1 | Data:0x44 | W_En:1
# Addr:0x2 | Data:0x01 | W_En:1
# SLAVE ADDRESS: 0x22 | OPERATION: WRITE
# Addr:0x2 | Data:0x81 | W_En:0
# Addr:0x1 | Data:0x09 | W_En:1
# Addr:0x2 | Data:0x01 | W_En:1
# SLAVE ADDRESS: 0x22 | OPERATION: WRITE | Data:  9
# Addr:0x2 | Data:0x81 | W_En:0
# Addr:0x2 | Data:0x04 | W_En:1
# RESTART!!!!!
# Addr:0x2 | Data:0x84 | W_En:0
# Addr:0x1 | Data:0x45 | W_En:1
# Addr:0x2 | Data:0x01 | W_En:1
# SLAVE ADDRESS: 0x22 | OPERATION:  READ
# Addr:0x2 | Data:0x81 | W_En:0
# Addr:0x2 | Data:0x03 | W_En:1
# STOP!!!!!
# SLAVE ADDRESS: 0x22 | OPERATION:  READ | Data:109
# READ WTIH NACK 
# Addr:0x2 | Data:0x83 | W_En:0
# Addr:0x1 | Data:0xb6 | W_En:0
# Addr:0x2 | Data:0x04 | W_En:1
# START!!!!!
# Addr:0x2 | Data:0x84 | W_En:0
# Addr:0x1 | Data:0x44 | W_En:1
# Addr:0x2 | Data:0x01 | W_En:1
# SLAVE ADDRESS: 0x22 | OPERATION: WRITE
# Addr:0x2 | Data:0x81 | W_En:0
# Addr:0x1 | Data:0x0a | W_En:1
# Addr:0x2 | Data:0x01 | W_En:1
# SLAVE ADDRESS: 0x22 | OPERATION: WRITE | Data: 10
# Addr:0x2 | Data:0x81 | W_En:0
# Addr:0x2 | Data:0x04 | W_En:1
# RESTART!!!!!
# Addr:0x2 | Data:0x84 | W_En:0
# Addr:0x1 | Data:0x45 | W_En:1
# Addr:0x2 | Data:0x01 | W_En:1
# SLAVE ADDRESS: 0x22 | OPERATION:  READ
# Addr:0x2 | Data:0x81 | W_En:0
# Addr:0x2 | Data:0x03 | W_En:1
# STOP!!!!!
# SLAVE ADDRESS: 0x22 | OPERATION:  READ | Data:110
# READ WTIH NACK 
# Addr:0x2 | Data:0x83 | W_En:0
# Addr:0x1 | Data:0x76 | W_En:0
# Addr:0x2 | Data:0x04 | W_En:1
# START!!!!!
# Addr:0x2 | Data:0x84 | W_En:0
# Addr:0x1 | Data:0x44 | W_En:1
# Addr:0x2 | Data:0x01 | W_En:1
# SLAVE ADDRESS: 0x22 | OPERATION: WRITE
# Addr:0x2 | Data:0x81 | W_En:0
# Addr:0x1 | Data:0x0b | W_En:1
# Addr:0x2 | Data:0x01 | W_En:1
# SLAVE ADDRESS: 0x22 | OPERATION: WRITE | Data: 11
# Addr:0x2 | Data:0x81 | W_En:0
# Addr:0x2 | Data:0x04 | W_En:1
# RESTART!!!!!
# Addr:0x2 | Data:0x84 | W_En:0
# Addr:0x1 | Data:0x45 | W_En:1
# Addr:0x2 | Data:0x01 | W_En:1
# SLAVE ADDRESS: 0x22 | OPERATION:  READ
# Addr:0x2 | Data:0x81 | W_En:0
# Addr:0x2 | Data:0x03 | W_En:1
# STOP!!!!!
# SLAVE ADDRESS: 0x22 | OPERATION:  READ | Data:111
# READ WTIH NACK 
# Addr:0x2 | Data:0x83 | W_En:0
# Addr:0x1 | Data:0xf6 | W_En:0
# Addr:0x2 | Data:0x04 | W_En:1
# START!!!!!
# Addr:0x2 | Data:0x84 | W_En:0
# Addr:0x1 | Data:0x44 | W_En:1
# Addr:0x2 | Data:0x01 | W_En:1
# SLAVE ADDRESS: 0x22 | OPERATION: WRITE
# Addr:0x2 | Data:0x81 | W_En:0
# Addr:0x1 | Data:0x0c | W_En:1
# Addr:0x2 | Data:0x01 | W_En:1
# SLAVE ADDRESS: 0x22 | OPERATION: WRITE | Data: 12
# Addr:0x2 | Data:0x81 | W_En:0
# Addr:0x2 | Data:0x04 | W_En:1
# RESTART!!!!!
# Addr:0x2 | Data:0x84 | W_En:0
# Addr:0x1 | Data:0x45 | W_En:1
# Addr:0x2 | Data:0x01 | W_En:1
# SLAVE ADDRESS: 0x22 | OPERATION:  READ
# Addr:0x2 | Data:0x81 | W_En:0
# Addr:0x2 | Data:0x03 | W_En:1
# STOP!!!!!
# SLAVE ADDRESS: 0x22 | OPERATION:  READ | Data:112
# READ WTIH NACK 
# Addr:0x2 | Data:0x83 | W_En:0
# Addr:0x1 | Data:0x0e | W_En:0
# Addr:0x2 | Data:0x04 | W_En:1
# START!!!!!
# Addr:0x2 | Data:0x84 | W_En:0
# Addr:0x1 | Data:0x44 | W_En:1
# Addr:0x2 | Data:0x01 | W_En:1
# SLAVE ADDRESS: 0x22 | OPERATION: WRITE
# Addr:0x2 | Data:0x81 | W_En:0
# Addr:0x1 | Data:0x0d | W_En:1
# Addr:0x2 | Data:0x01 | W_En:1
# SLAVE ADDRESS: 0x22 | OPERATION: WRITE | Data: 13
# Addr:0x2 | Data:0x81 | W_En:0
# Addr:0x2 | Data:0x04 | W_En:1
# RESTART!!!!!
# Addr:0x2 | Data:0x84 | W_En:0
# Addr:0x1 | Data:0x45 | W_En:1
# Addr:0x2 | Data:0x01 | W_En:1
# SLAVE ADDRESS: 0x22 | OPERATION:  READ
# Addr:0x2 | Data:0x81 | W_En:0
# Addr:0x2 | Data:0x03 | W_En:1
# STOP!!!!!
# SLAVE ADDRESS: 0x22 | OPERATION:  READ | Data:113
# READ WTIH NACK 
# Addr:0x2 | Data:0x83 | W_En:0
# Addr:0x1 | Data:0x8e | W_En:0
# Addr:0x2 | Data:0x04 | W_En:1
# START!!!!!
# Addr:0x2 | Data:0x84 | W_En:0
# Addr:0x1 | Data:0x44 | W_En:1
# Addr:0x2 | Data:0x01 | W_En:1
# SLAVE ADDRESS: 0x22 | OPERATION: WRITE
# Addr:0x2 | Data:0x81 | W_En:0
# Addr:0x1 | Data:0x0e | W_En:1
# Addr:0x2 | Data:0x01 | W_En:1
# SLAVE ADDRESS: 0x22 | OPERATION: WRITE | Data: 14
# Addr:0x2 | Data:0x81 | W_En:0
# Addr:0x2 | Data:0x04 | W_En:1
# RESTART!!!!!
# Addr:0x2 | Data:0x84 | W_En:0
# Addr:0x1 | Data:0x45 | W_En:1
# Addr:0x2 | Data:0x01 | W_En:1
# SLAVE ADDRESS: 0x22 | OPERATION:  READ
# Addr:0x2 | Data:0x81 | W_En:0
# Addr:0x2 | Data:0x03 | W_En:1
# STOP!!!!!
# SLAVE ADDRESS: 0x22 | OPERATION:  READ | Data:114
# READ WTIH NACK 
# Addr:0x2 | Data:0x83 | W_En:0
# Addr:0x1 | Data:0x4e | W_En:0
# Addr:0x2 | Data:0x04 | W_En:1
# START!!!!!
# Addr:0x2 | Data:0x84 | W_En:0
# Addr:0x1 | Data:0x44 | W_En:1
# Addr:0x2 | Data:0x01 | W_En:1
# SLAVE ADDRESS: 0x22 | OPERATION: WRITE
# Addr:0x2 | Data:0x81 | W_En:0
# Addr:0x1 | Data:0x0f | W_En:1
# Addr:0x2 | Data:0x01 | W_En:1
# SLAVE ADDRESS: 0x22 | OPERATION: WRITE | Data: 15
# Addr:0x2 | Data:0x81 | W_En:0
# Addr:0x2 | Data:0x04 | W_En:1
# RESTART!!!!!
# Addr:0x2 | Data:0x84 | W_En:0
# Addr:0x1 | Data:0x45 | W_En:1
# Addr:0x2 | Data:0x01 | W_En:1
# SLAVE ADDRESS: 0x22 | OPERATION:  READ
# Addr:0x2 | Data:0x81 | W_En:0
# Addr:0x2 | Data:0x03 | W_En:1
# STOP!!!!!
# SLAVE ADDRESS: 0x22 | OPERATION:  READ | Data:115
# READ WTIH NACK 
# Addr:0x2 | Data:0x83 | W_En:0
# Addr:0x1 | Data:0xce | W_En:0
# Addr:0x2 | Data:0x04 | W_En:1
# START!!!!!
# Addr:0x2 | Data:0x84 | W_En:0
# Addr:0x1 | Data:0x44 | W_En:1
# Addr:0x2 | Data:0x01 | W_En:1
# SLAVE ADDRESS: 0x22 | OPERATION: WRITE
# Addr:0x2 | Data:0x81 | W_En:0
# Addr:0x1 | Data:0x10 | W_En:1
# Addr:0x2 | Data:0x01 | W_En:1
# SLAVE ADDRESS: 0x22 | OPERATION: WRITE | Data: 16
# Addr:0x2 | Data:0x81 | W_En:0
# Addr:0x2 | Data:0x04 | W_En:1
# RESTART!!!!!
# Addr:0x2 | Data:0x84 | W_En:0
# Addr:0x1 | Data:0x45 | W_En:1
# Addr:0x2 | Data:0x01 | W_En:1
# SLAVE ADDRESS: 0x22 | OPERATION:  READ
# Addr:0x2 | Data:0x81 | W_En:0
# Addr:0x2 | Data:0x03 | W_En:1
# STOP!!!!!
# SLAVE ADDRESS: 0x22 | OPERATION:  READ | Data:116
# READ WTIH NACK 
# Addr:0x2 | Data:0x83 | W_En:0
# Addr:0x1 | Data:0x2e | W_En:0
# Addr:0x2 | Data:0x04 | W_En:1
# START!!!!!
# Addr:0x2 | Data:0x84 | W_En:0
# Addr:0x1 | Data:0x44 | W_En:1
# Addr:0x2 | Data:0x01 | W_En:1
# SLAVE ADDRESS: 0x22 | OPERATION: WRITE
# Addr:0x2 | Data:0x81 | W_En:0
# Addr:0x1 | Data:0x11 | W_En:1
# Addr:0x2 | Data:0x01 | W_En:1
# SLAVE ADDRESS: 0x22 | OPERATION: WRITE | Data: 17
# Addr:0x2 | Data:0x81 | W_En:0
# Addr:0x2 | Data:0x04 | W_En:1
# RESTART!!!!!
# Addr:0x2 | Data:0x84 | W_En:0
# Addr:0x1 | Data:0x45 | W_En:1
# Addr:0x2 | Data:0x01 | W_En:1
# SLAVE ADDRESS: 0x22 | OPERATION:  READ
# Addr:0x2 | Data:0x81 | W_En:0
# Addr:0x2 | Data:0x03 | W_En:1
# STOP!!!!!
# SLAVE ADDRESS: 0x22 | OPERATION:  READ | Data:117
# READ WTIH NACK 
# Addr:0x2 | Data:0x83 | W_En:0
# Addr:0x1 | Data:0xae | W_En:0
# Addr:0x2 | Data:0x04 | W_En:1
# START!!!!!
# Addr:0x2 | Data:0x84 | W_En:0
# Addr:0x1 | Data:0x44 | W_En:1
# Addr:0x2 | Data:0x01 | W_En:1
# SLAVE ADDRESS: 0x22 | OPERATION: WRITE
# Addr:0x2 | Data:0x81 | W_En:0
# Addr:0x1 | Data:0x12 | W_En:1
# Addr:0x2 | Data:0x01 | W_En:1
# SLAVE ADDRESS: 0x22 | OPERATION: WRITE | Data: 18
# Addr:0x2 | Data:0x81 | W_En:0
# Addr:0x2 | Data:0x04 | W_En:1
# RESTART!!!!!
# Addr:0x2 | Data:0x84 | W_En:0
# Addr:0x1 | Data:0x45 | W_En:1
# Addr:0x2 | Data:0x01 | W_En:1
# SLAVE ADDRESS: 0x22 | OPERATION:  READ
# Addr:0x2 | Data:0x81 | W_En:0
# Addr:0x2 | Data:0x03 | W_En:1
# STOP!!!!!
# SLAVE ADDRESS: 0x22 | OPERATION:  READ | Data:118
# READ WTIH NACK 
# Addr:0x2 | Data:0x83 | W_En:0
# Addr:0x1 | Data:0x6e | W_En:0
# Addr:0x2 | Data:0x04 | W_En:1
# START!!!!!
# Addr:0x2 | Data:0x84 | W_En:0
# Addr:0x1 | Data:0x44 | W_En:1
# Addr:0x2 | Data:0x01 | W_En:1
# SLAVE ADDRESS: 0x22 | OPERATION: WRITE
# Addr:0x2 | Data:0x81 | W_En:0
# Addr:0x1 | Data:0x13 | W_En:1
# Addr:0x2 | Data:0x01 | W_En:1
# SLAVE ADDRESS: 0x22 | OPERATION: WRITE | Data: 19
# Addr:0x2 | Data:0x81 | W_En:0
# Addr:0x2 | Data:0x04 | W_En:1
# RESTART!!!!!
# Addr:0x2 | Data:0x84 | W_En:0
# Addr:0x1 | Data:0x45 | W_En:1
# Addr:0x2 | Data:0x01 | W_En:1
# SLAVE ADDRESS: 0x22 | OPERATION:  READ
# Addr:0x2 | Data:0x81 | W_En:0
# Addr:0x2 | Data:0x03 | W_En:1
# STOP!!!!!
# SLAVE ADDRESS: 0x22 | OPERATION:  READ | Data:119
# READ WTIH NACK 
# Addr:0x2 | Data:0x83 | W_En:0
# Addr:0x1 | Data:0xee | W_En:0
# Addr:0x2 | Data:0x04 | W_En:1
# START!!!!!
# Addr:0x2 | Data:0x84 | W_En:0
# Addr:0x1 | Data:0x44 | W_En:1
# Addr:0x2 | Data:0x01 | W_En:1
# SLAVE ADDRESS: 0x22 | OPERATION: WRITE
# Addr:0x2 | Data:0x81 | W_En:0
# Addr:0x1 | Data:0x14 | W_En:1
# Addr:0x2 | Data:0x01 | W_En:1
# SLAVE ADDRESS: 0x22 | OPERATION: WRITE | Data: 20
# Addr:0x2 | Data:0x81 | W_En:0
# Addr:0x2 | Data:0x04 | W_En:1
# RESTART!!!!!
# Addr:0x2 | Data:0x84 | W_En:0
# Addr:0x1 | Data:0x45 | W_En:1
# Addr:0x2 | Data:0x01 | W_En:1
# SLAVE ADDRESS: 0x22 | OPERATION:  READ
# Addr:0x2 | Data:0x81 | W_En:0
# Addr:0x2 | Data:0x03 | W_En:1
# STOP!!!!!
# SLAVE ADDRESS: 0x22 | OPERATION:  READ | Data:120
# READ WTIH NACK 
# Addr:0x2 | Data:0x83 | W_En:0
# Addr:0x1 | Data:0x1e | W_En:0
# Addr:0x2 | Data:0x04 | W_En:1
# START!!!!!
# Addr:0x2 | Data:0x84 | W_En:0
# Addr:0x1 | Data:0x44 | W_En:1
# Addr:0x2 | Data:0x01 | W_En:1
# SLAVE ADDRESS: 0x22 | OPERATION: WRITE
# Addr:0x2 | Data:0x81 | W_En:0
# Addr:0x1 | Data:0x15 | W_En:1
# Addr:0x2 | Data:0x01 | W_En:1
# SLAVE ADDRESS: 0x22 | OPERATION: WRITE | Data: 21
# Addr:0x2 | Data:0x81 | W_En:0
# Addr:0x2 | Data:0x04 | W_En:1
# RESTART!!!!!
# Addr:0x2 | Data:0x84 | W_En:0
# Addr:0x1 | Data:0x45 | W_En:1
# Addr:0x2 | Data:0x01 | W_En:1
# SLAVE ADDRESS: 0x22 | OPERATION:  READ
# Addr:0x2 | Data:0x81 | W_En:0
# Addr:0x2 | Data:0x03 | W_En:1
# STOP!!!!!
# SLAVE ADDRESS: 0x22 | OPERATION:  READ | Data:121
# READ WTIH NACK 
# Addr:0x2 | Data:0x83 | W_En:0
# Addr:0x1 | Data:0x9e | W_En:0
# Addr:0x2 | Data:0x04 | W_En:1
# START!!!!!
# Addr:0x2 | Data:0x84 | W_En:0
# Addr:0x1 | Data:0x44 | W_En:1
# Addr:0x2 | Data:0x01 | W_En:1
# SLAVE ADDRESS: 0x22 | OPERATION: WRITE
# Addr:0x2 | Data:0x81 | W_En:0
# Addr:0x1 | Data:0x16 | W_En:1
# Addr:0x2 | Data:0x01 | W_En:1
# SLAVE ADDRESS: 0x22 | OPERATION: WRITE | Data: 22
# Addr:0x2 | Data:0x81 | W_En:0
# Addr:0x2 | Data:0x04 | W_En:1
# RESTART!!!!!
# Addr:0x2 | Data:0x84 | W_En:0
# Addr:0x1 | Data:0x45 | W_En:1
# Addr:0x2 | Data:0x01 | W_En:1
# SLAVE ADDRESS: 0x22 | OPERATION:  READ
# Addr:0x2 | Data:0x81 | W_En:0
# Addr:0x2 | Data:0x03 | W_En:1
# STOP!!!!!
# SLAVE ADDRESS: 0x22 | OPERATION:  READ | Data:122
# READ WTIH NACK 
# Addr:0x2 | Data:0x83 | W_En:0
# Addr:0x1 | Data:0x5e | W_En:0
# Addr:0x2 | Data:0x04 | W_En:1
# START!!!!!
# Addr:0x2 | Data:0x84 | W_En:0
# Addr:0x1 | Data:0x44 | W_En:1
# Addr:0x2 | Data:0x01 | W_En:1
# SLAVE ADDRESS: 0x22 | OPERATION: WRITE
# Addr:0x2 | Data:0x81 | W_En:0
# Addr:0x1 | Data:0x17 | W_En:1
# Addr:0x2 | Data:0x01 | W_En:1
# SLAVE ADDRESS: 0x22 | OPERATION: WRITE | Data: 23
# Addr:0x2 | Data:0x81 | W_En:0
# Addr:0x2 | Data:0x04 | W_En:1
# RESTART!!!!!
# Addr:0x2 | Data:0x84 | W_En:0
# Addr:0x1 | Data:0x45 | W_En:1
# Addr:0x2 | Data:0x01 | W_En:1
# SLAVE ADDRESS: 0x22 | OPERATION:  READ
# Addr:0x2 | Data:0x81 | W_En:0
# Addr:0x2 | Data:0x03 | W_En:1
# STOP!!!!!
# SLAVE ADDRESS: 0x22 | OPERATION:  READ | Data:123
# READ WTIH NACK 
# Addr:0x2 | Data:0x83 | W_En:0
# Addr:0x1 | Data:0xde | W_En:0
# Addr:0x2 | Data:0x04 | W_En:1
# START!!!!!
# Addr:0x2 | Data:0x84 | W_En:0
# Addr:0x1 | Data:0x44 | W_En:1
# Addr:0x2 | Data:0x01 | W_En:1
# SLAVE ADDRESS: 0x22 | OPERATION: WRITE
# Addr:0x2 | Data:0x81 | W_En:0
# Addr:0x1 | Data:0x18 | W_En:1
# Addr:0x2 | Data:0x01 | W_En:1
# SLAVE ADDRESS: 0x22 | OPERATION: WRITE | Data: 24
# Addr:0x2 | Data:0x81 | W_En:0
# Addr:0x2 | Data:0x04 | W_En:1
# RESTART!!!!!
# Addr:0x2 | Data:0x84 | W_En:0
# Addr:0x1 | Data:0x45 | W_En:1
# Addr:0x2 | Data:0x01 | W_En:1
# SLAVE ADDRESS: 0x22 | OPERATION:  READ
# Addr:0x2 | Data:0x81 | W_En:0
# Addr:0x2 | Data:0x03 | W_En:1
# STOP!!!!!
# SLAVE ADDRESS: 0x22 | OPERATION:  READ | Data:124
# READ WTIH NACK 
# Addr:0x2 | Data:0x83 | W_En:0
